{
  "Ironclad": {
    "NAMES": [
      "Латоносец"
    ],
    "TEXT": [
      "Последний солдат Латоносцев. NL Продал свою душу, чтобы овладеть демонической силой."
    ]
  },
  "Crowbot": {
    "NAMES": [
      "Воробот"
    ],
    "TEXT": [
      "БИП-БУП"
    ]
  },
  "Silent": {
    "NAMES": [
      "Безмолвная"
    ],
    "TEXT": [
      "Охотница из туманных земель. NL Уничтожает врагов с помощью кинжалов и ядов."
    ]
  },
  "Neow Event": {
    "NAMES": [
      "Ньов"
    ],
    "TEXT": [
      "~Приветствую...~ NL ~Я..~ ~Ньов...~",
      "~Снова...~ NL ~Здравствуй...~",
      "~Приветствую...~",
      "~Попытаешься~ NL ~снова...?~",
      "~Дойди~ ~до~ ~босса...~ NL ~чтобы~ ~получить~ ~мое...~ ~благословение...~",
      "~Сразись...~ ~хотя бы~ NL ~с~ ~первым~ ~боссом...~",
      "~Мне~ ~удалось~ ~тебя~ ~вернуть...~",
      "~Выбирай...~",
      "~Исполнено...~",
      "~Риск...~ NL ~...награда....~"
    ],
    "OPTIONS": [
      "[Продолжить]",
      "[Говорить]",
      "[Пропустить]",
      "[Уйти]"
    ]
  },
  "Neow Reward": {
    "NAMES": [],
    "TEXT": [
      "[ #gВыбрать #gи #gполучить #gКарту ]",
      "[ #gПолучить #gслучайную #gредкую #gКарту ]",
      "[ #gУбрать #gКарту #gиз #gКоллекции ]",
      "[ #gУлучшить #gКарту ]",
      "[ #gИзменить #gКарту ]",
      "[ #gПолучить #g3 #gслучайных #gзелья ]",
      "[ #gПолучить #gслучайную #gобычную #gРеликвию ]",
      "[ #gМакс. #gОЗ #g+",
      "[ #gПолучить #g",
      " #gЗолота ]",
      "#gУбрать #g2 #gКарты ]",
      "#gПолучить #gредкую #gРеликвию ]",
      "#gПолучить #gредкую #gКарту ]",
      "#gПолучить #g",
      " #gзолота ]",
      "#gИзменить #g2 #gКарты ]",
      "#gМакс. #gОЗ #g+",
      "[ #rПотерять #r",
      " #rмакс. #rОЗ. ",
      "[ #rПотерять #rвсё #rЗолото. ",
      "[ #rПолучить #rПроклятие. ",
      "[ #rПотерять #r50% #rсвоих #rтекущих #rОЗ. ",
      "Выберите Карту",
      "Выберите Карту, которую хотите Убрать",
      "Выберите 2 Карты, которые хотите Убрать",
      "Выберите Карту, которую хотите Изменить",
      "Выберите 2 Карты, которые хотите Изменить",
      "Выберите Карту, которую хотите Улучшить",
      "[ #gВраги #gв #g3 #gследующих #gсражениях #gбудут #gиметь #g1 #gОЗ ]"
    ],
    "UNIQUE_REWARDS": [
      "[ #rПотерять #rсвою #rстартовую #rРеликвию #gПолучить #gслучайную #gРеликвию #gбосса ]"
    ]
  },
  "Merchant": {
    "NAMES": [
      "Продолжить",
      "~Добро пожаловать!~"
    ],
    "TEXT": [
      "Привет! NL Купи что-нибудь! NL Купи-купи-купи!",
      "Мне нравится твой причесон",
      "Минутка не найдется?",
      "Тебе больше по душе кошки или собаки?",
      "Ты выглядишь так ~опасно,~ NL хе-хе...",
      "Не торопись... NL ..... NL ... или торопись",
      "Тебе нравится мой коврик? NL Он не продается",
      "Поддержи развивающийся бизнес!",
      "Маски — это круто, уж я-то знаю!",
      "Хм-м... NL ...хм-м-м... NL О!",
      "Погоди да послушай!",
      "Опасно идти в одиночку! Отдай мне своё золото!",
      "Купи что-нить'",
      "~*ЗЕВОК*~",
      "Я люблю золото.",
      "Мой любимый цвет — синий. NL А твой?"
    ]
  },
  "Shop Screen": {
    "NAMES": [
      "~Приветствую,~ NL ~приветствую!~",
      "Придержи коней, NL тебе нужно NL больше #rЗолота.",
      "Эй, дружище, у тебя нет #rДенег!",
      "Дырка в кошельке?",
      "У тебя нема #rЗолота.",
      "Тебе это не по карману.",
      "У меня тут не благотворительность.",
      "~Спаси-и-и-ибо~",
      "Очередная продажа... NL хо-хо-хо! NL @Дз-ы-ы-нь!@",
      "@ПРОДАНО!@",
      "Возврату не подлежит.",
      "Хорошего дня.",
      "Уйти",
      "Выберите карту, которую хотите убрать из Коллекции."
    ],
    "TEXT": [
      "Привет! NL Купи что-нибудь! NL Купи-купи-купи!",
      "Мне нравится твой причесон",
      "Минутка не найдется?",
      "Тебе больше по душе кошки или собаки?",
      "Ты выглядишь так ~опасно,~ NL хе-хе...",
      "Не торопись... NL ..... NL ... или торопись",
      "Тебе нравится мой коврик? NL Он не продается",
      "Поддержи развивающийся бизнес!",
      "Маски — это круто, уж я-то знаю!",
      "Не видел моего курьера?",
      "Погоди да послушай!",
      "Опасно идти в одиночку! Отдай мне своё золото!",
      "Купи что-нить'",
      "~*ЗЕВОК*~",
      "Я люблю золото.",
      "Мой любимый цвет — синий. NL А твой?"
    ]
  }
}