﻿{
  "Block Potion": {
    "NAME": "Зелье защиты",
    "DESCRIPTIONS": [
      "Получите #b",
      " ед. #yЗащиты."
    ]
  },
  "Dexterity Potion": {
    "NAME": "Зелье ловкости",
    "DESCRIPTIONS": [
      "Получите #b",
      " ед. #yЛовкости."
    ]
  },
  "Elixir": {
    "NAME": "Эликсир",
    "DESCRIPTIONS": [
      "",
      "",
      "#yСожгите все #yкарты Статуса в вашей руке.",
      "",
      "Ничего не произошло..."
    ]
  },
  "Energy Potion": {
    "NAME": "Зелье энергии",
    "DESCRIPTIONS": [
      "Получите #b",
      " ед. Энергии."
    ]
  },
  "Explosive Potion": {
    "NAME": "Взрывное зелье",
    "DESCRIPTIONS": [
      "Нанесите #b",
      " ед. урона ВСЕМ врагам."
    ]
  },
  "Fire Potion": {
    "NAME": "Огненное зелье",
    "DESCRIPTIONS": [
      "Нанесите #b",
      " ед. урона."
    ]
  },
  "Health Potion": {
    "NAME": "Зелье здоровья",
    "DESCRIPTIONS": [
      "Восполните #b",
      " ОЗ."
    ]
  },
  "Poison Potion": {
    "NAME": "Зелье отравления",
    "DESCRIPTIONS": [
      "Наложите #b",
      " ед. #yЯда."
    ]
  },
  "Potion Slot": {
    "NAME": "Место для зелья",
    "DESCRIPTIONS": [
      "Используйте зелья во время сражения, чтобы получить #gбонусы или #rнавредить врагам.",
      "Место для зелья"
    ]
  },
  "Regen Potion": {
    "NAME": "Зелье восстановления",
    "DESCRIPTIONS": [
      "Восполните #b",
      " #yОЗ в начале каждого хода в течение #b",
      " ходов."
    ]
  },
  "Strength Potion": {
    "NAME": "Зелье силы",
    "DESCRIPTIONS": [
      "Получите #b",
      " ед. #yСилы."
    ]
  },
  "Swift Potion": {
    "NAME": "Зелье скорости",
    "DESCRIPTIONS": [
      "",
      "Вытяните #b",
      " карт(ы)."
    ]
  },
  "Weak Potion": {
    "NAME": "Зелье слабости",
    "DESCRIPTIONS": [
      "Наложите #b",
      " ед. #yСлабости."
    ]
  }
}