﻿{
  "Absorb": {
    "NAME": "Поглощение",
    "DESCRIPTIONS": [
      "Каждый раз, когда Вас атакуют, Вы получаете #b",
      " Заряда."
    ]
  },
  "Accuracy": {
    "NAME": "Меткость",
    "DESCRIPTIONS": [
      "#yЗаточки наносят #b",
      " дополнительного урона."
    ]
  },
  "After Image": {
    "NAME": "Послеобраз",
    "DESCRIPTIONS": [
      "Вы получаете #b",
      "#yЗащиты, когда разыгрываете карту."
    ]
  },
  "Anger": {
    "NAME": "Бешенство",
    "DESCRIPTIONS": [
      "Получает #b",
      " #yСилы, когда Вы разыгрываете #Навык."
    ]
  },
  "Angry": {
    "NAME": "Злоба",
    "DESCRIPTIONS": [
      "",
      " получает #b",
      " #yСилы, когда получает урон от #yАтак."
    ]
  },
  "Artifact": {
    "NAME": "Артефакт",
    "DESCRIPTIONS": [
      "Отменяет #b",
      " отриц. эффект.",
      " отриц. эффекта."
    ]
  },
  "Attack Burn": {
    "NAME": "Выжигание атак",
    "DESCRIPTIONS": [
      "В течение #b",
      " хода Вы #yСжигаете разыгрываемые #yАтаки.",
      "В течение #b",
      " ходов Вы #yСжигаете разыгрываемые #yАтаки."
    ]
  },
  "Barricade": {
    "NAME": "Баррикада",
    "DESCRIPTIONS": [
      "В начале Вашего хода #yЗащита не исчезает.",
      "В начале хода #yЗащита не исчезает."
    ]
  },
  "Blur": {
    "NAME": "Неуловимость",
    "DESCRIPTIONS": [
      "В начале Вашего следующего хода #yЗащита не исчезнет.",
      "В начале Ваших следующих #b",
      " ходов #yЗащита не исчезнет."
    ]
  },
  "Brutality": {
    "NAME": "Брутальность",
    "DESCRIPTIONS": [
      "В начале своего хода Вы теряете #b",
      " ОЗ и берёте #b",
      " карту.",
      "В начале своего хода Вы теряете #b",
      " ОЗ и берёте #b",
      " карты."
    ]
  },
  "Burst": {
    "NAME": "Залп",
    "DESCRIPTIONS": [
      "В этом ходу Ваш следующий #yНавык разыгрывается дважды.",
      "В этом ходу ",
      " Ваших следующих #yНавыка разыгрываются дважды."
    ]
  },
  "Choked": {
    "NAME": "Удушение",
    "DESCRIPTIONS": [
      "Теряет #b",
      " ОЗ каждый раз, когда Вы разыгрываете в этом ходу."
    ]
  },
  "Combust": {
    "NAME": "Самовозгорание",
    "DESCRIPTIONS": [
      "В конце своего хода Вы теряете #b",
      " ОЗ и наносите #b",
      " урона ВСЕМ врагам."
    ]
  },
  "Confusion": {
    "NAME": "Замешательство",
    "DESCRIPTIONS": [
      "Каждая взятая карта имеет случайную стоимость."
    ]
  },
  "Constricted": {
    "NAME": "Сдавленность",
    "DESCRIPTIONS": [
      "В начале своего хода Вы получите #b",
      " урона."
    ]
  },
  "Corruption": {
    "NAME": "Скверна",
    "DESCRIPTIONS": [
      "Навыки стоят #b0. Вы #yСжигаете разыгрываемые #yНавыки.",
      "Вы #yСжигаете играемые #yНавыки."
    ]
  },
  "Curiosity": {
    "NAME": "Любопытство",
    "DESCRIPTIONS": [
      "Получает #b",
      " #yСилы, когда Вы разыгрываете #yТалант."
    ]
  },
  "Curl Up": {
    "NAME": "Свернуться",
    "DESCRIPTIONS": [
      "Сворачивается и получает ",
      " #yЗащиты, когда теряет ОЗ от #yАтак."
    ]
  },
  "Dance Puppet": {
    "NAME": "Марионетка",
    "DESCRIPTIONS": [
      "Вы получаете #b",
      " урона, когда разыгрываете что-либо, кроме #yНавыков (Тип карты меняется каждый ход).",
      "Вы получаете #b",
      " урона, когда разыгрываете что-либо, кроме #yАтак. +1 к «Марионетке»"
    ]
  },
  "Dark Embrace": {
    "NAME": "Объятия тьмы",
    "DESCRIPTIONS": [
      "Когда карта #yСжигается, Вы берёте #b1 карту",
      "Когда карта #yСжигается, Вы берёте #b",
      " карты."
    ]
  },
  "Darkness": {
    "NAME": "Тьма",
    "DESCRIPTIONS": [
      "В начале своего хода Вы получаете на #b1 Энергии меньше."
    ]
  },
  "Demon Form": {
    "NAME": "Демонический облик",
    "DESCRIPTIONS": [
      "В начале своего хода Вы получаете #b",
      " #yСилы."
    ]
  },
  "Dexterity": {
    "NAME": "Ловкость",
    "DESCRIPTIONS": [
      "Повышает получаемую от карт #yЗащиту на #b",
      "Снижает получаемую от карт #yЗащиту на #b"
    ]
  },
  "Double Damage": {
    "NAME": "Двойной урон",
    "DESCRIPTIONS": [
      "В течение #b",
      " хода карты #yАтаки наносят двойной урон.",
      " ходов карты #yАтаки наносят двойной урон."
    ]
  },
  "Double Tap": {
    "NAME": "Двойной спуск",
    "DESCRIPTIONS": [
      "В этом ходу Ваша следующая карта #yАтаки играется дважды.",
      "В этом ходу Ваши следующие ",
      " карты #yАтаки играются дважды."
    ]
  },
  "Draw Card": {
    "NAME": "Добор карт",
    "DESCRIPTIONS": [
      "В начале следующего хода Вы возьмёте #b",
      " карты.",
      " карту."
    ]
  },
  "Draw": {
    "NAME": "Раздача",
    "DESCRIPTIONS": [
      "В начале каждого хода Вы берёте на #b",
      " карту больше.",
      " карту меньше.",
      " карты больше.",
      " карты меньше."
    ]
  },
  "Draw Down": {
    "NAME": "Сокращение добора",
    "DESCRIPTIONS": [
      "В начале следующего хода Вы возьмёте на #b",
      " карту меньше.",
      " карты меньше."
    ]
  },
  "Draw Reduction": {
    "NAME": "Понижение добора",
    "DESCRIPTIONS": [
      "В начале следующего хода Вы возьмёте на #b1 карту меньше.",
      "В начале следующих #b",
      " ходов Вы возьмёте на #b1 карту меньше."
    ]
  },
  "Electric Field": {
    "NAME": "Электрическое поле",
    "DESCRIPTIONS": [
      "Когда Вас атакуют, Вы нанесёте #b1 урона за каждые #b",
      " Заряда.",
      "Когда Вас атакуют, Вы нанесёте #b1 урона за каждый Заряд."
    ]
  },
  "Energized": {
    "NAME": "Энергичность",
    "DESCRIPTIONS": [
      "В следующем ходу Вы получите на #b",
      " [G] больше."
    ]
  },
  "Entangled": {
    "NAME": "Путы",
    "DESCRIPTIONS": [
      "В течение одного хода Вы не можете играть #yАтаками."
    ]
  },
  "Envenom": {
    "NAME": "Отравление",
    "DESCRIPTIONS": [
      "Каждый раз, когда Вы нанесёте незаблокированный урон врагу, наложите #b",
      " #yЯда."
    ]
  },
  "Evolve": {
    "NAME": "Эволюция",
    "DESCRIPTIONS": [
      "Каждый раз, когда Вы берёте #yРану, возьмите карту.",
      "Каждый раз, когда Вы берёте #yРану, возьмите #b",
      " карты."
    ]
  },
  "Explosive": {
    "NAME": "Взрывчатка",
    "DESCRIPTIONS": [
      "Погибая, наносит Вам #b",
      " урона."
    ]
  },
  "Feel No Pain": {
    "NAME": "Забыть о боли",
    "DESCRIPTIONS": [
      "Каждый раз, когда вы #yСжигаете карту, получите #b",
      " #yЗащиты."
    ]
  },
  "Fire Breathing": {
    "NAME": "Огненное дыхание",
    "DESCRIPTIONS": [
      "В конце своего хода Вы нанесёте #b",
      " урона ВСЕМ врагам за каждую сыгранную #yАтаку."
    ]
  },
  "Flame Barrier": {
    "NAME": "Огненный барьер",
    "DESCRIPTIONS": [
      "Каждый раз, когда Вы получаете урон от #yАтак, нанесите #b",
      " урона в ответ."
    ]
  },
  "Flight": {
    "NAME": "Полёт",
    "DESCRIPTIONS": [
      "Получаемый от #yАтак урон снижен на #b50%. Эффект снимается после получения урона от #yАтак #b3 раза в одном ходу."
    ]
  },
  "Nullify Attack": {
    "NAME": "Обнуление атаки",
    "DESCRIPTIONS": [
      "Вы полностью #yЗащищаетесь от одной #yАтаки."
    ]
  },
  "Frail": {
    "NAME": "Хрупкость",
    "DESCRIPTIONS": [
      "Получаемая от карт #yЗащита понижена на #b25% в течение #b",
      " хода.",
      " ходов."
    ]
  },
  "Shackled": {
    "NAME": "Оковы",
    "DESCRIPTIONS": [
      "Получает обратно #b",
      " #yСилы в конце своего хода."
    ]
  },
  "Gambit": {
    "NAME": "Гамбит",
    "DESCRIPTIONS": [
      "После #b",
      " хода Вы получите ",
      " ходов Вы получите ",
      " [B] ."
    ]
  },
  "Generator": {
    "NAME": "Генератор",
    "DESCRIPTIONS": [
      "В начале каждого хода Вы получите #b",
      " #yЗаряда."
    ]
  },
  "Hex": {
    "NAME": "Сглаз",
    "DESCRIPTIONS": [
      "При разыгрывании чего-либо, кроме #yАтак, замешайте в колоду #b",
      " #yГоловокружение."
    ]
  },
  "Hide": {
    "NAME": "Укрытие",
    "DESCRIPTIONS": [
      "Вы не можете получить урон до начала следующего хода.",
      "Вы не можете получать урон в течение #b",
      " ходов."
    ]
  },
  "Impulse": {
    "NAME": "Импульс",
    "DESCRIPTIONS": [
      "В конце своего хода Вы потеряете #b",
      " Заряда."
    ]
  },
  "Infinite Blades": {
    "NAME": "Бесчисленные клинки",
    "DESCRIPTIONS": [
      " В начале своего хода Вы возьмёте #b",
      " #yЗаточку.",
      " #yЗаточки."
    ]
  },
  "Bullet Time": {
    "NAME": "Замедленное время",
    "DESCRIPTIONS": [
      "Все карты в руке стоят #b0."
    ]
  },
  "Intangible": {
    "NAME": "Неприкасаемость",
    "DESCRIPTIONS": [
      "В течение #b",
      " хода ВЕСЬ получаемый урон снижается до #b1.",
      " ходов ВЕСЬ получаемый урон снижается до #b1."
    ]
  },
  "Inverted": {
    "NAME": "Инверсия",
    "DESCRIPTIONS": [
      "Иммунитет к урону. Каждый раз, когда Вы получаете единицы #yЗащиты, теряет столько же ОЗ."
    ]
  },
  "Juggernaut": {
    "NAME": "Джаггернаут",
    "DESCRIPTIONS": [
      "Каждый раз, когда Вы получаете #yЗащиты, нанесите #b",
      " урона случайному врагу."
    ]
  },
  "Knowledge": {
    "NAME": "Знания",
    "DESCRIPTIONS": [
      "Каждый раз, когда Вы разыгрываете #yТалант, возьмите #b",
      " карт."
    ]
  },
  "Flex": {
    "NAME": "Игра мышцами",
    "DESCRIPTIONS": [
      "В конце своего хода Вы потеряете #b",
      " #yСилы."
    ]
  },
  "Malleable": {
    "NAME": "Податливость",
    "DESCRIPTIONS": [
      "Получает #b",
      " #yЗащиты каждый раз, когда теряет ОЗ. Когда ",
      " срабатывает, получаемая #yЗащита повышается. Сбрасывается до #b",
      " в начале Вашего хода."
    ]
  },
  "Metallicize": {
    "NAME": "Стальная кожа",
    "DESCRIPTIONS": [
      "В конце своего хода Вы получите #b",
      " #yЗащиты.",
      "В конце своего хода получает #b",
      " #yЗащиты."
    ]
  },
  "Mode Shift": {
    "NAME": "Смена режима",
    "DESCRIPTIONS": [
      "Переходит в оборонительный режим после получения #b",
      " урона."
    ]
  },
  "Next Turn Block": {
    "NAME": "Защита в следующем ходу",
    "DESCRIPTIONS": [
      "В начале своего хода Вы получите #b",
      " #yЗащиты."
    ]
  },
  "No Draw": {
    "NAME": "Запрет добора",
    "DESCRIPTIONS": [
      "Вы не можете брать карты до конца хода."
    ]
  },
  "Noxious Fumes": {
    "NAME": "Едкие испарения",
    "DESCRIPTIONS": [
      "В начале своего хода Вы наложите #b",
      " #yЯда на ВСЕХ врагов."
    ]
  },
  "Panache": {
    "NAME": "Харизма",
    "DESCRIPTIONS": [
      "Сыграв еще #b",
      " картой, Вы нанесёте #b",
      " урона ВСЕМ врагам.",
      " картами, Вы нанесёте #b"
    ]
  },
  "Pen Nib": {
    "NAME": "Остриё пера",
    "DESCRIPTIONS": [
      "Ваша следующая #yАтака нанесёт двойной урон."
    ]
  },
  "Phantasmal": {
    "NAME": "Фантом",
    "DESCRIPTIONS": [
      "В следующем ходу Вы будете наносить #yдвойной #yурон.",
      "В течение следующих ",
      " ходов Вы будете наносить #yдвойной #yурон."
    ]
  },
  "Plated Armor": {
    "NAME": "Латная броня",
    "DESCRIPTIONS": [
      "В конце своего хода Вы получите #b",
      " #yЗащиты. «#yЛатная #yброня» убывает на #b1 при каждой потере ОЗ.",
      "Получает #b",
      " #yЗащиты в конце своего хода. «#yЛатная #yброня» убывает на #b1 при каждой потере ОЗ."
    ]
  },
  "Poison": {
    "NAME": "Яд",
    "DESCRIPTIONS": [
      "Вы потеряете #b",
      " ОЗ в начале своего хода, после чего #yЯд уменьшится на #b1.",
      "Теряет #b"
    ]
  },
  "Rage": {
    "NAME": "Ярость",
    "DESCRIPTIONS": [
      "В этому ходу Вы получите #b",
      " #yЗащиты за каждую сыгранную Атаку."
    ]
  },
  "Reduce Damage": {
    "NAME": "Уменьшение урона",
    "DESCRIPTIONS": [
      "Уменьшает получаемый урон на #b"
    ]
  },
  "Regenerate": {
    "NAME": "Регенерировать",
    "DESCRIPTIONS": [
      "Вылечивает #b",
      " #yОЗ в конце хода."
    ]
  },
  "Regeneration": {
    "NAME": "Регенерация",
    "DESCRIPTIONS": [
      "В конце своего хода Вы вылечиваете #b",
      " #yОЗ в течение #b",
      " ходов."
    ]
  },
  "Life Link": {
    "NAME": "Симбиоз",
    "DESCRIPTIONS": [
      "Воскрешается через #b2 хода с #b50% ОЗ, если другие враги живы."
    ]
  },
  "Relentless Beating": {
    "NAME": "Неугомонный стук",
    "DESCRIPTIONS": [
      " бьётся быстрее после каждого разыгрывания карты или получения урона."
    ]
  },
  "Repulse": {
    "NAME": "Отпор",
    "DESCRIPTIONS": [
      "",
      " кладёт Вам в руку #yРану, когда получает урон."
    ]
  },
  "Retain Cards": {
    "NAME": "Оставить карты",
    "DESCRIPTIONS": [
      "В конце хода Вы можете оставить #b",
      " карту.",
      " карты."
    ]
  },
  "Retain Hand": {
    "NAME": "Оставить руку",
    "DESCRIPTIONS": [
      "В конце хода Вы оставляете карты в руке; длится #b",
      " хода.",
      "В конце хода Вы оставляете карты в руке."
    ]
  },
  "Riposte": {
    "NAME": "Ответная атака",
    "DESCRIPTIONS": [
      "Наносит #b",
      " урона в ответ, когда вы играете #yАтакой в этом ходу."
    ]
  },
  "Ritual": {
    "NAME": "Ритуал",
    "DESCRIPTIONS": [
      "Получает #b",
      " #yСилы в конце своего хода."
    ]
  },
  "Generic Strength Up Power": {
    "NAME": "",
    "DESCRIPTIONS": [
      "Получает #b",
      " #yСилы в конце своего хода."
    ]
  },
  "Rupture": {
    "NAME": "Разрыв",
    "DESCRIPTIONS": [
      "Вы получите #b",
      " #yСилы при потере ОЗ из-за карты."
    ]
  },
  "Sadistic": {
    "NAME": "Садизм",
    "DESCRIPTIONS": [
      "Каждый раз, когда Вы накладываете отриц. эффект, нанесите #b",
      " урона."
    ]
  },
  "Serpentine": {
    "NAME": "Змеевик",
    "DESCRIPTIONS": [
      "Иммунитет к #yзельям."
    ]
  },
  "Sharp Hide": {
    "NAME": "Колючая шкура",
    "DESCRIPTIONS": [
      "Вы получите #b",
      " урона при каждом разыгрывании #yАтаки."
    ]
  },
  "Shriek From Beyond": {
    "NAME": "Вопль из бездны",
    "DESCRIPTIONS": [
      "Вы сбросите случайную карту при каждом разыгрывании #yАтаки."
    ]
  },
  "Skill Burn": {
    "NAME": "Выжигание навыков",
    "DESCRIPTIONS": [
      "В течение #b",
      " хода Вы #yСжигаете каждый разыгрываемый #yНавык.",
      "В течение следующих #b",
      " ходов Вы #yСжигаете каждый разыгрываемый #yНавык."
    ]
  },
  "Slow": {
    "NAME": "Медлительность",
    "DESCRIPTIONS": [
      "",
      " получает на #b10% больше урона от #yАтак за каждую сыгранную в этом ходу карту.",
      " (Получает на #b",
      "% больше урона)"
    ]
  },
  "Split": {
    "NAME": "Деление",
    "DESCRIPTIONS": [
      "Находясь при #b50% или менее ОЗ, делится на #b2 малых слизня, ОЗ которых равны тем, что имеет на момент деления ",
      "."
    ]
  },
  "Spore Cloud": {
    "NAME": "Споровое облако",
    "DESCRIPTIONS": [
      "Погибая, накладывает на Вас #b",
      " #yУязвимости."
    ]
  },
  "Stasis": {
    "NAME": "Стазис",
    "DESCRIPTIONS": [
      "Погибнув, возвращает ",
      " к Вам в руку."
    ]
  },
  "Extra Cards": {
    "NAME": "Дополнительные карты",
    "DESCRIPTIONS": [
      "В следующем ходу Вы возьмёте на #b1 карту больше.",
      "Вы следующем ходу Вы возьмёте на #b",
      " карты больше."
    ]
  },
  "Strength": {
    "NAME": "Сила",
    "DESCRIPTIONS": [
      "Повышает урон от атак на #b",
      "Повышает урон от атак на #b"
    ]
  },
  "Systems": {
    "NAME": "Система",
    "DESCRIPTIONS": [
      "Каждый раз, когда Вы получаете единицы Заряда, нанесите столько же урона случайному врагу."
    ]
  },
  "Thievery": {
    "NAME": "Грабёж",
    "DESCRIPTIONS": [
      " крадёт #b",
      " #yЗолота каждый раз, когда атакует."
    ]
  },
  "Thorns": {
    "NAME": "Шипы",
    "DESCRIPTIONS": [
      "Получая урон от #yАтак, наносит #b",
      " урона в ответ."
    ]
  },
  "Thousand Cuts": {
    "NAME": "Тысяча порезов",
    "DESCRIPTIONS": [
      "Вы наносите #b",
      " урона ВСЕМ врагам, когда играете картой."
    ]
  },
  "Berserk": {
    "NAME": "Берсерк",
    "DESCRIPTIONS": [
      "В начале своего хода Вы получите ",
      " , если Ваши ОЗ равны или ниже #b50%."
    ]
  },
  "Time Warp": {
    "NAME": "Искажение времени",
    "DESCRIPTIONS": [
      "Когда Вы разыграете #b",
      " карт, Ваш ход завершится, и Пожиратель времени получит #b",
      " #yСилы."
    ]
  },
  "Tools Of The Trade": {
    "NAME": "Знаток своего дела",
    "DESCRIPTIONS": [
      "В начале своего хода Вы возьмёте #b",
      " карту и сбросите #b",
      " карту.",
      " карты и сбросите #b",
      " карты."
    ]
  },
  "Unawakened": {
    "NAME": "Не пробуждён",
    "DESCRIPTIONS": [
      "Этот враг еще не пробудился..."
    ]
  },
  "Unstable": {
    "NAME": "Нестабильность",
    "DESCRIPTIONS": [
      "Нанесите достаточно урона, чтобы сбить врага с ног."
    ]
  },
  "Venomology": {
    "NAME": "Ядоведение",
    "DESCRIPTIONS": [
      "С каждым ходом Яд не понижается, а возрастает на #b",
      " ."
    ]
  },
  "Vulnerable": {
    "NAME": "Уязвимость",
    "DESCRIPTIONS": [
      "Получаемый от #yАтак урон повышен на #b",
      "% в течение #b",
      " хода.",
      " ходов."
    ]
  },
  "Weakened": {
    "NAME": "Слабость",
    "DESCRIPTIONS": [
      "Наносимый #yАтаками урон понижен на #b",
      "% в течение #b",
      " хода.",
      " ходов."
    ]
  },
  "Wraith Form": {
    "NAME": "Призрачный облик",
    "DESCRIPTIONS": [
      "Вы наносите ",
      " урона случайному врагу при разыгрывании Навыка."
    ]
  },
  "Night Terror": {
    "NAME": "Кошмар",
    "DESCRIPTIONS": [
      "Вы добавите #b",
      " карт в руку в начале своего следующего хода."
    ]
  },
  "Painful Stabs": {
    "NAME": "Болезненные порезы",
    "DESCRIPTIONS": [
      "Каждый раз, когда этот враг наносит Вам незаблокированный урон, добавьте #yРану в сброс."
    ]
  },
  "Minion": {
    "NAME": "Прислужник",
    "DESCRIPTIONS": [
      "Прислужники покидают бой, потеряв лидера."
    ]
  }
}