{
  "Cancel Button": {
    "TEXT": [
      "Удалить сохранение"
    ]
  },
  "Confirm Button": {
    "TEXT": [
      "Подтвердить"
    ]
  },
  "End Turn Button": {
    "TEXT": [
      "Завершить ход",
      "Ход врага"
    ]
  },
  "Proceed Button": {
    "TEXT": [
      "Продолжить"
    ]
  },
  "GamblingChipAction": {
    "TEXT": [
      "Заменить (игровая фишка)"
    ]
  },
  "RetainCardsAction": {
    "TEXT": [
      "Оставить"
    ]
  },
  "AbstractChest": {
    "TEXT": [
      "Продолжить"
    ]
  },
  "BossChest": {
    "TEXT": [
      "Продолжить"
    ]
  },
  "ShopRoom": {
    "TEXT": [
      "Пропустить торговца"
    ]
  },
  "TreasureRoom": {
    "TEXT": [
      "Пропустить сундук"
    ]
  },
  "TreasureRoomBoss": {
    "TEXT": [
      "Пропустить сундук"
    ]
  },
  "SetupAction": {
    "TEXT": [
      "положить на вершину вашей колоды."
    ]
  },
  "SkillFromDeckToHandAction": {
    "TEXT": [
      "Выберите навык и возьмите его в руку"
    ]
  },
  "Legend": {
    "TEXT": [
      "Неизвестно",
      "???",
      "Тайная комната. NL NL Тут вы можете найти монстров, сокровища, магазины или что-то совершенно иное.",
      "Торговец",
      "Магазины",
      "В этих комнатах таинственный торговец продает свои товары. NL NL Потратьте здесь честно заработанное #yзолото!",
      "Сокровища",
      "Комнаты сокровищ",
      "В этих комнатах можно найти #yреликвии и #yзолото.",
      "Привал",
      "Места привала",
      "В этих комнатах вы можете восполнить #gздоровье или #yулучшить карту.",
      "Враг",
      "Враги",
      "В этих комнатах обитают враги.",
      "Элитный враг",
      "Элитные враги",
      "В этих комнатах вас ждут могучие враги. NL NL Победа над ними принесет вам реликвию.",
      "Легенда"
    ]
  },
  "Unlock Confirm Button": {
    "TEXT": [
      "Продолжить"
    ]
  },
  "Dig Option": {
    "TEXT": [
      "Копать",
      "Откопайте случайную реликвию."
    ]
  },
  "Lift Option": {
    "TEXT": [
      "Поднимать тяжести",
      "Начинайте битву с +1 к силе. (До 3 макс.)"
    ]
  },
  "Rest Option": {
    "TEXT": [
      "Отдыхать",
      "Восполните 20% от вашего макс. здоровья (",
      " ед. здоровья от ",
      "Восполните 30% от вашего макс. здоровья ("
    ]
  },
  "Smith Option": {
    "TEXT": [
      "Ковать",
      "Улучшите карту в вашей коллекции.",
      "Нет карт, которые можно улучшить."
    ]
  },
  "Toke Option": {
    "TEXT": [
      "Затяжка",
      "Уберите карту из своей коллекции."
    ]
  },
  "DiscardPilePanel": {
    "TEXT": [
      "Мой сброс #rпуст."
    ]
  },
  "DrawPilePanel": {
    "TEXT": [
      "Моя колода #rпуста."
    ]
  },
  "PotionPopUp": {
    "TEXT": [
      "Бросить",
      "Выпить",
      "Выкинуть",
      "Я не могу использовать зелья!",
      "Я не могу сделать это во время сражения!"
    ]
  },
  "RenamePanel": {
    "TEXT": [
      "<нет имени>",
      "Введите  свое  имя",
      "Подтвердить",
      "Отменить"
    ]
  },
  "TopPanel": {
    "TEXT": [
      " уровень"
    ]
  },
  "UnlockCharacterScreen": {
    "TEXT": [
      "Карты открыты!",
      "Новая экипировка!",
      "Реликвии открыты!",
      "Новый персонаж",
      "Примечание: открытые карты теперь доступны в следующих вылазках.",
      "Примечание: открытые реликвии теперь доступны в следующих вылазках."
    ]
  },
  "UnlockScreen": {
    "TEXT": [
      "Карты открыты!",
      "Реликвии открыты!",
      "Новый персонаж",
      "Примечание: открытые карты теперь доступны в следующих вылазках.",
      "Примечание: открытые реликвии теперь доступны в следующих вылазках."
    ]
  },
  "StorePotion": {
    "TEXT": [
      "У вас нет свободного места"
    ]
  },
  "AbstractRoom": {
    "TEXT": [
      "Вас ограбили..."
    ]
  },
  "SingleViewRelicPopup": {
    "TEXT": [
      "Боссова",
      "Обычная",
      "Устаревшая",
      "Раритетная",
      "Магазинная",
      "Событие",
      "Начальная",
      "Редкая",
      "Закрытая",
      "Неизвестная",
      " реликвия",
      "Эту реликвию еще предстоит открыть.",
      "Эту реликвию вы еще не видели."
    ]
  },
  "SingleCardViewPopup": {
    "TEXT": [
      "Атака",
      "Навык",
      "Талант",
      "Проклятие",
      "Закрыто",
      "Неизвестно",
      "Посмотреть улучшение",
      "Статус",
      "Боезапас",
      "Я могу сыграть карту только в свой ход.",
      "Я в #rпутах! NL Не могу играть Атаку",
      "Недостаточно #rэнергии.",
      "Недостаточно #rЗарядов.",
      "Я не могу сыграть NL этой картой"
    ]
  },
  "MasterDeckViewScreen": {
    "TEXT": [
      "Вы начинаете каждое сражение с этими картами.",
      "Вернуться"
    ]
  },
  "DungeonTransitionScreen": {
    "TEXT": [
      "Обучение",
      "Вы хотите видеть игровые подсказки во время игры?",
      "Уровень 1",
      "Преддверие",
      "Уровень 2",
      "Город",
      "Уровень 3",
      "Запределье",
      "Уровень ?",
      "???",
      "Нажмите в любом месте, чтобы продолжить"
    ]
  },
  "DungeonMapScreen": {
    "TEXT": [
      "Выберите начальную комнату",
      "Вернуться"
    ]
  },
  "DrawPileViewScreen": {
    "TEXT": [
      "Отсюда вы берете карты в начале каждого хода.",
      "(Карты отсортированы по редкости)",
      "Вернуться",
      "Колода"
    ]
  },
  "DiscardPileViewScreen": {
    "TEXT": [
      "Отсюда карты переходят в вашу колоду, когда в ней заканчиваются карты.",
      "Вернуться",
      "Сброс"
    ]
  },
  "DiscardAction": {
    "TEXT": [
      "Выкинуть"
    ]
  },
  "ArmamentsAction": {
    "TEXT": [
      "Улучшить"
    ]
  },
  "DualWieldAction": {
    "TEXT": [
      "Копировать"
    ]
  },
  "HiddenChamberAction": {
    "TEXT": [
      "Копировать"
    ]
  },
  "DeathScreen": {
    "TEXT": [
      "Продолжить",
      "Победа?",
      "Уровней пройдено",
      "Боссов убито",
      "Время игры",
      "Время игры",
      "Очки",
      "Побеждено",
      "Смерть...",
      "Фиаско",
      "Поражение!",
      "Вам конец",
      "Вы погибли",
      "Вы уничтожены",
      "Вы убиты!",
      "Знакомое чувство.",
      "Вздремнуть было бы неплохо.",
      "Что посеешь, то и пожнешь.",
      "Надо было идти другим путем.",
      "Неожиданный поворот.",
      "Завтра попробую еще раз.",
      "Нужно разработать план.",
      "Проблема в подготовке.",
      "Непостижимо!",
      "Неужели я не могу лучше?",
      "Такая у меня удача...",
      "Только не так...",
      "Это еще не вершина.",
      "Еще одна жертва Шпиля...",
      "Ваше сознание меркнет...",
      "Поражение",
      "Принять",
      "Продолжить",
      "Попробовать снова",
      "Главное меню",
      "Продолжить",
      "Открыть",
      "Главное меню",
      "Попробовать снова",
      "Продолжить",
      "Открыть",
      "Осталось открытий: ",
      "Осталось открытие: ",
      "Врагов убито",
      "Элитных врагов убито",
      "Оставшееся золото",
      "Бонус к здоровью"
    ]
  },
  "CombatRewardScreen": {
    "TEXT": [
      "Продолжить",
      "Пропустить карту",
      "Пропустить золото",
      "Пропустить зелье",
      "Пропустить реликвию",
      "Пропустить награды",
      "Закрыть",
      "Сокровище!",
      "Что внутри?",
      "Награды!",
      "Трофеи!",
      "Добыча!",
      "Совет: "
    ]
  },
  "ChooseOneScreen": {
    "TEXT": [
      "Выбрать что-то одно"
    ]
  },
  "CardRewardScreen": {
    "TEXT": [
      "Пропустить",
      "Выберите карту"
    ]
  },
  "BossRelicSelectScreen": {
    "TEXT": [
      "Подтвердить",
      "Подтвердите выбор",
      "Выберите реликвию",
      "Пропустить"
    ]
  },
  "GridCardSelectScreen": {
    "TEXT": [
      "Подтвердить",
      "Отменить",
      "Подтвердите выбор",
      "Уйти"
    ]
  },
  "HandCardSelectScreen": {
    "TEXT": [
      "Подтвердите карту, чтобы ",
      "Подтвердите карты, чтобы ",
      "Выберите ",
      " Карты, чтобы ",
      "Выберите любое число карт, чтобы ",
      "Выберите карту, чтобы "
    ]
  },
  "AbandonRunButton": {
    "TEXT": [
      "Отменить вылазку"
    ]
  },
  "ConfirmPopup": {
    "TEXT": [
      "Вернуться",
      "Удалить сохранение",
      "Да",
      "Нет"
    ]
  },
  "ExitGameButton": {
    "TEXT": [
      "Выйти из игры"
    ]
  },
  "OptionsPanel": {
    "TEXT": [
      "ПРИМЕЧАНИЕ: опции, отмеченные КРАСНЫМ, пока недоступны.",
      "Меню игры",
      "Графика",
      "Разрешение: NL Макс. кадр. частота:",
      "Полн. экран NL Полн. экран без рамки (рекоменд.) NL Дрожание экрана",
      "Звук",
      "Весь звук NL Музыка NL Эффекты",
      "Фоновые звуки",
      "Настройки",
      "Показывать общий урон золотым NL Показывать защищенный урон синим NL Убрать подтверждение для выбора 1 карты",
      "Обычные советы NL Советы по картам",
      "Советы по способностям NL Советы по реликвиям",
      "Разное",
      "#rЯзык:",
      "Загрузка игровой информации #b(?)",
      "Выйти из игры",
      "Сохранить и выйти",
      "NL NL Верт. синхронизация",
      "Playtester Art Mode"
    ]
  },
  "SettingsScreen": {
    "TEXT": [
      "Вы уверены?",
      "Ваш прогресс сохраняется автоматически.",
      "Покинув игру, вы проиграете.",
      "ВНИМАНИЕ:\nПрогресс НЕ сохранен.\n\nДойдите до следующего уровня, чтобы сохраниться.",
      "Вернуться",
      "Прогресс НЕ сохраняется для ежедневных вылазок."
    ]
  },
  "CardLibraryScreen": {
    "TEXT": [
      "Вернуться",
      "Красн.",
      "Зелен.",
      "Син.",
      "Бесцвет.",
      "Проклятия",
      "Статусы",
      "Посмотреть улучшение"
    ]
  },
  "CardLibSortHeader": {
    "TEXT": [
      "Редкость",
      "Тип",
      "А-Я"
    ]
  },
  "EarlyAccessPopup": {
    "TEXT": [
      "Что такое ранний доступ?",
      "Что такое открытое тестирование?",
      "«Slay the Spire» еще находится в процессе разработки! NL Многие опции, карты и враги всё еще подвержены изменениям. NL NL Если вы найдете ошибки или хотите оставить отзыв, дайте нам знать на нашей странице #bобсуждений в #bSteam. NL NL Хватит читать, пора взбираться на Шпиль!",
      "«Slay the Spire» еще находится в процессе разработки! NL К тому же вы играете в бета-версию игры. NL NL Пожалуйста, дайте нам знать о любых проблемах, с которыми вы столкнулись во время игры, но не удивляйтесь временному дизайну будущих материалов. NL NL Хватит читать, пора взбираться на Шпиль!",
      "Нажмите в любом месте, чтобы начать"
    ]
  },
  "MainMenuScreen": {
    "TEXT": [
      "#yСборка: ",
      "В путь",
      "Вернуться",
      "нажмите, чтобы изменить"
    ]
  },
  "MenuButton": {
    "TEXT": [
      "Библиотека карт",
      "Играть",
      "Ежедневное испытание",
      "Коллекция реликвий",
      "Продолжить",
      "Таблица лидеров",
      "Статистика",
      "Титры",
      "Выйти",
      "Описание обновлений",
      "Отменить вылазку",
      "Отменить вылазку (нажмите снова для подтверждения)"
    ]
  },
  "PatchNotesScreen": {
    "TEXT": [
      "Вернуться",
      "#yОписание #yобновлений",
      " NL (ВРЕМЕННО: Используйте стрелки, чтобы листать)"
    ]
  },
  "RelicViewScreen": {
    "TEXT": [
      "Вернуться",
      "Начальные:",
      "Персонажи могут начать игру с этими реликвиями.",
      "Обычные:",
      "Слабые, часто встречающиеся реликвии.",
      "Необычные:",
      "Более сильные реликвии, попадаются реже обычных.",
      "Редкие:",
      "Уникальные и мощные реликвии, попадаются редко.",
      "Боссы:",
      "Реликвии, которые попадаются только в сундуках боссов.",
      "События:",
      "Реликвии, которые можно получить только за события.",
      "Торговец:",
      "Реликвии, которые можно преобрести только у торговца."
    ]
  },
  "CharacterOption": {
    "TEXT": [
      "Закрыто",
      "Этого персонажа можно открыть, завершив одну вылазку.",
      "Этот персонаж недоступен в раннем доступе.",
      "Этого персонажа можно открыть, достигнув вершины Шпиля.",
      "Здоровье: ",
      "Золото: ",
      " Открытий осталось",
      "Неизвестно",
      "???",
      " до следующей разблокировки"
    ]
  },
  "CharacterSelectScreen": {
    "TEXT": [
      "Выберите персонажа",
      "В путь",
      "Нерушимый",
      "Безмолвная",
      "Ворон-бот",
      "Назад"
    ]
  },
  "AbstractMonster": {
    "TEXT": [
      "Агрессия",
      "Этот враг планирует NL #yатаковать, нанеся #b",
      " ед. урона #b",
      " раз(а).",
      "Этот враг планирует NL #yатаковать, нанеся #b",
      " ед. урона.",
      "Агрессия",
      "Этот враг планирует наложить #yположительный #yэффект и #yатаковать, нанеся #b",
      " раз(а).",
      "Этот враг планирует наложить #yположительный #yэффект и #yатаковать, нанеся #b",
      "Стратегия",
      "Этот враг планирует наложить #yнегативный #yэффект на вас и #yатаковать, нанеся #b",
      "Этот враг планирует #yзащититься и #yатаковать, нанеся #b",
      "Защита",
      "Трусливость",
      "Магия",
      "Спит",
      "Оглушение",
      "Неизвестно",
      "Этот враг планирует наложить #yположительный #yэффект.",
      "Этот враг планирует наложить на вас #yнегативный #yэффект.",
      "Этот враг планирует наложить на вас мощный #yнегативный #yэффект.",
      "В свой ход этот враг планирует #yзащититься.",
      "Этот враг планирует #yзащититься и наложить на вас #yнегативный #yэффект.",
      "Этот враг планирует #yзащититься и наложить #yположительный #yэффект.",
      "Это враг планирует #yсбежать.",
      "Этот враг планирует использовать в свой ход таинственную #yмагию.",
      "Этот враг спит.",
      "Этот враг #yоглушен во время своего хода.",
      "Намерения этого врага #yнеизвестны (но это не атака).",
      "Блокировано"
    ]
  },
  "AbstractDungeon": {
    "TEXT": [
      "Продолжить"
    ]
  },
  "Exordium": {
    "TEXT": [
      "Преддверие"
    ]
  },
  "TheCity": {
    "TEXT": [
      "Город"
    ]
  },
  "TheBeyond": {
    "TEXT": [
      "Запределье"
    ]
  },
  "GameSavedEffect": {
    "TEXT": [
      "#y~Игра~ #y~сохранена~"
    ]
  },
  "CampfireSleepEffect": {
    "TEXT": [
      "Сновидения?"
    ]
  },
  "OpeningAction": {
    "TEXT": [
      "Этот враг не планирует атаковать!"
    ]
  },
  "RestartForChangesEffect": {
    "TEXT": [
      "Перезапустите игру, чтобы настройки экрана вошли в силу."
    ]
  },
  "PutOnDeckAction": {
    "TEXT": [
      "положить на верх колоды"
    ]
  },
  "ApplyPowerAction": {
    "TEXT": [
      "Отторгнуто",
      "Иммунитет",
      "Аннулировано",
      "\n понижена"
    ]
  },
  "CopyAction": {
    "TEXT": [
      "Копировать"
    ]
  },
  "PowerExpireTextEffect": {
    "TEXT": [
      "Больше не действует"
    ]
  },
  "LanguageDropdown": {
    "TEXT": [
      "Brazilian Portugese",
      "Chinese (Simplified)",
      "Chinese (Traditional)",
      "English",
      "French",
      "German",
      "Italian",
      "Japanese",
      "Korean",
      "Polish",
      "Русский",
      "Spanish",
      "Hebrew"
    ]
  },
  "UnlockTextEffect": {
    "TEXT": [
      "Награда!"
    ]
  },
  "ImmolateAction": {
    "TEXT": [
      "Сжечь"
    ]
  },
  "AbstractPlayer": {
    "TEXT": [
      "Заблокировано",
      "Нерушимый",
      "Безмолвная",
      "the Gunner"
    ]
  },
  "ExhaustAction": {
    "TEXT": [
      "Сжечь"
    ]
  },
  "RewardItem": {
    "TEXT": [
      " Золото (Возвращённое)",
      " Золото",
      "Добавьте карту в колоду",
      "",
      "Выберите карту"
    ]
  },
  "AbstractCard": {
    "TEXT": [
      "Закрыто",
      "Неизвестно"
    ]
  },
  "CampfireTokeEffect": {
    "TEXT": [
      "Выберите карту, которую хотите убрать."
    ]
  },
  "CampfireUI": {
    "TEXT": [
      "Что делать?",
      "Хмм...",
      "Что же мне сделать?",
      "Пора прерваться",
      "Столько вариантов...",
      "Стоит передохнуть",
      "Я так устал..."
    ]
  },
  "AbstractPotion": {
    "TEXT": [
      "Я не могу нести NL больше зелий."
    ]
  },
  "CampfireSmithEffect": {
    "TEXT": [
      "Выберите карту для улучшения"
    ]
  },
  "BattleStartEffect": {
    "TEXT": [
      "Начало боя",
      "Ход игрока",
      "Вражеский ход",
      " ход"
    ]
  },
  "TipHelper": {
    "TEXT": [
      "Энергия"
    ]
  },
  "AbstractCreature": {
    "TEXT": [
      "Мёртв",
      "Блокировано",
      "Макс. здоровье +"
    ]
  },
  "LeaderboardsScreen": {
    "TEXT": [
      "Назад",
      "Фильтры",
      "Персонаж",
      "Регион",
      "Тип",
      "Посмотреть счёт",
      "Ранг",
      "Имя",
      "Счёт",
      "Получение данных...",
      "Таблица лидеров",
      "Нет соединения со Steam"
    ]
  },
  "ExhumeAction": {
    "TEXT": [
      "Выберите карту, которую хотите вернуть в руку"
    ]
  }
}