{
  "Absorb": {
    "NAME": "Absorb",
    "DESCRIPTIONS": [
	"Whenever attacked, gain #b", 
	" Charge."
    ]
  },
  "Accuracy": {
    "NAME": "Accuracy",
    "DESCRIPTIONS": [
	"#yShivs deal #b", 
	" additional damage."
    ]
  },
  "After Image": {
    "NAME": "After Image",
    "DESCRIPTIONS": [
	"Whenever you play a card, gain #b", 
	" #yBlock." 
    ]
  },
  "Anger": {
    "NAME": "Enrage",
    "DESCRIPTIONS": [
	"Whenever you play a #ySkill, gains #b", 
	" #yStrength."
    ]
  },
  "Angry": {
    "NAME": "Angry",
    "DESCRIPTIONS": [
	"Whenever ", 
	" takes #yAttack damage, it gains #b", 
	" #yStrength."
    ]
  },
  "Artifact": {
    "NAME": "Artifact",
    "DESCRIPTIONS": [
	"Negates #b", 
	" debuff.", 
	" debuffs."
    ]
  },
  "Attack Burn": {
    "NAME": "Attack Burn",
    "DESCRIPTIONS": [
	"For #b", 
	" turn, whenever you play an #yAttack, #yExhaust it.",
	"For the next #b", 
	" turns, whenever you play an #yAttack, #yExhaust it."
    ]
  },
  "Barricade": {
    "NAME": "Barricade",
    "DESCRIPTIONS": [
	"#yBlock is not removed at the start of your turn.",
	"#yBlock is not removed at the start of turn."
    ]
  },
  "Blur": {
    "NAME": "Blur",
    "DESCRIPTIONS": [
	"#yBlock is not removed at the start of your next turn.",
	"#yBlock is not removed at the start of your next #b", 
	" turns."
    ]
  },
  "Brutality": {
    "NAME": "Brutality",
    "DESCRIPTIONS": [
	"At the start of your turn, lose #b",
	" HP and draw #b",
	" card.",
	"At the start of your turn, lose #b",
	" HP and draw #b",
	" cards."
    ]
  },
  "Burst": {
    "NAME": "Burst",
    "DESCRIPTIONS": [
	"On this turn, play your next #ySkill twice.",
	"On this turn, play your next ", 
	" #ySkills twice."
    ]
  },
  "Choked": {
    "NAME": "Choked",
    "DESCRIPTIONS": [
	"Loses #b", 
	" HP whenever you play a card this turn."
    ]
  },
  "Combust": {
    "NAME": "Combust",
    "DESCRIPTIONS": [
	"At the end of your turn, lose #b", 
	" HP and deal #b",
	" damage to ALL enemies."
    ]
  },
  "Confusion": {
    "NAME": "Confusion",
    "DESCRIPTIONS": [
	"Whenever you draw a card, randomize its cost."
    ]
  },
  "Constricted": {
    "NAME": "Constricted",
    "DESCRIPTIONS": [
	"At the end of your turn take #b", 
	" damage."
    ]
  },
  "Corruption": {
    "NAME": "Corruption",
    "DESCRIPTIONS": [
	"Skills cost #b0. Whenever you play a #ySkill, #yExhaust it.",
	"Whenever you play a #ySkill, #yExhaust it."
    ]
  },
  "Curiosity": {
    "NAME": "Curiosity",
    "DESCRIPTIONS": [
	"Whenever you play a #yPower, gains #b", 
	" #yStrength."
    ]
  },
  "Curl Up": {
    "NAME": "Curl Up",
    "DESCRIPTIONS": [
	"On taking #yAttack damage, rolls up and gains ", 
	" #yBlock."
    ]
  },
  "Dance Puppet": {
    "NAME": "Dance Puppet",
    "DESCRIPTIONS": [
	"Whenever you play a non-Skill card, take #b",
	" damage. (Card type changes each turn)", 
	"Whenever you play a non-Attack card, take #b",
	"+1 Dance Puppet"
    ]
  },
  "Dark Embrace": {
    "NAME": "Dark Embrace",
    "DESCRIPTIONS": [
	"Whenever a card is #yExhausted, draw #b1 card.",
	"Whenever a card is #yExhausted, draw #b", 
	" cards."
    ]
  },
  "Darkness": {
    "NAME": "Darkness",
    "DESCRIPTIONS": [
	"Gain #b1 less Energy at the start of your turn."
    ]
  },
  "Demon Form": {
    "NAME": "Demon Form",
    "DESCRIPTIONS": [
	"At the start of your turn, gain #b", 
	" #yStrength."
    ]
  },
  "Dexterity": {
    "NAME": "Dexterity",
    "DESCRIPTIONS": [
	"Increases #yBlock gained from cards by #b",
	"Decreases #yBlock gained from cards by #b"
    ]
  },
  "Double Damage": {
    "NAME": "Double Damage",
    "DESCRIPTIONS": [
	"#yAttacks deal double damage for #b", 
	" turn.", 
	" turns."
    ]
  },
  "Double Tap": {
    "NAME": "Double Tap",
    "DESCRIPTIONS": [
	"This turn, play your next #yAttack twice.",
	"This turn, play your next ", 
	" #yAttacks twice."
    ]
  },
  "Draw Card": {
    "NAME": "Draw Card",
    "DESCRIPTIONS": [
	"Draw #b", 
	" cards next turn.", 
	" card next turn."
    ]
  },
  "Draw": {
    "NAME": "Draw",
    "DESCRIPTIONS": [
  "Draw #b", 
  " additional card at the start of each turn.",
  " fewer card at the start of each turn.",
  " additional cards at the start of each turn.",
  " fewer cards at the start of each turn."
    ]
  },
  "Draw Down": {
    "NAME": "Draw Down",
    "DESCRIPTIONS": [
	"Draw #b", 
	" less card next turn.", 
	" less cards next turn."
    ]
  },
  "Draw Reduction": {
    "NAME": "Draw Reduction",
    "DESCRIPTIONS": [
	"Draw #b1 less card next turn.", 
	"Draw #b1 less card for #b",
	" turns."
    ]
  },
  "Electric Field": {
    "NAME": "Electric Field",
    "DESCRIPTIONS": [
	"When attacked, deal #b1 damage for every #b", 
	" Charge you have.",
	"When attacked, deal #b1 damage for every Charge you have."
    ]
  },
  "Energized": {
    "NAME": "Energized",
    "DESCRIPTIONS": [
	"Gain #b", 
	" additional [G] next turn."
    ]
  },
  "Entangled": {
    "NAME": "Entangled",
    "DESCRIPTIONS": [
	"You cannot play #yAttacks for one turn."
    ]
  },
  "Envenom": {
    "NAME": "Envenom",
    "DESCRIPTIONS": [
	"Whenever you deal unblocked #yAttack damage, apply #b", 
	" #yPoison."
    ]
  },
  "Evolve": {
    "NAME": "Evolve",
    "DESCRIPTIONS": [
	"Whenever you draw a #yWound, draw a card.",
	"Whenever you draw a #yWound, draw #b", 
	" cards."
    ]
  },
  "Explosive": {
    "NAME": "Explosive",
    "DESCRIPTIONS": [
	"On death, deals #b", 
	" damage to you."
    ]
  },
  "Feel No Pain": {
    "NAME": "Feel No Pain",
    "DESCRIPTIONS": [
	"Whenever a card is #yExhausted, gain #b", 
	" #yBlock."
    ]
  },
  "Fire Breathing": {
    "NAME": "Fire Breathing",
    "DESCRIPTIONS": [
	"At the end of your turn, for each #yAttack played this turn deal #b",
	" damage to ALL enemies."
    ]
  },
  "Flame Barrier": {
    "NAME": "Flame Barrier",
    "DESCRIPTIONS": [
	"Whenever you receive #yAttack damage, deal #b", 
	" damage back."
    ]
  },
  "Flight": {
    "NAME": "Flight",
    "DESCRIPTIONS": [
	"Reduce #yAttack damage taken by #b50%. Cancelled if dealt #yAttack damage #b3 times in one turn."
    ]
  },
  "Nullify Attack": {
    "NAME": "Nullify Attack",
    "DESCRIPTIONS": [
	"Fully #yBlocks one #yAttack each turn."
    ]
  },
  "Frail": {
    "NAME": "Frail",
    "DESCRIPTIONS": [
	"Gain #b25% less #yBlock from cards for #b", 
	" turn.", 
	" turns."
    ]
  },
  "Shackled": {
    "NAME": "Shackled",
    "DESCRIPTIONS": [
	"Regains #b", 
	" #yStrength at the end of its turn."
    ]
  },
  "Gambit": {
    "NAME": "Gambit",
    "DESCRIPTIONS": [
	"After #b", 
	" turn, gain ", 
	" turns, gain ", 
	" [B] ."
    ]
  },
  "Generator": {
    "NAME": "Generator",
    "DESCRIPTIONS": [
	"At the start of each turn, gain #b", 
	" #yCharge."
    ]
  },
  "Hex": {
    "NAME": "Hex",
    "DESCRIPTIONS": [
	"Whenever you play a non-Attack card, shuffle #b",
	" #yDazed into your deck."
    ]
  },
  "Hide": {
    "NAME": "Hide",
    "DESCRIPTIONS": [
	"You cannot take damage until the start of your next turn.",
	"You cannot take damage for #b", 
	" turns."
    ]
  },
  "Impulse": {
    "NAME": "Impulse",
    "DESCRIPTIONS": [
	"At the end of your turn, lose #b", 
	" Charge."
    ]
  },
  "Infinite Blades": {
    "NAME": "Infinite Blades",
    "DESCRIPTIONS": [
	"At the start of your turn, draw #b", 
	" #yShivs.", 
	" #yShiv."
    ]
  },
  "Bullet Time": {
    "NAME": "Bullet Time",
    "DESCRIPTIONS": [
	 "The energy cost of all Green cards are now #b0."
    ]
  },
  "Intangible": {
    "NAME": "Intangible",
    "DESCRIPTIONS": [
	"Reduce ALL damage taken and HP loss to #b1 for the next #b",
	" turn.",
	" turns."
    ]
  },
  "Inverted": {
    "NAME": "Inverted",
    "DESCRIPTIONS": [
	"Immune to damage. Whenever you gain #yBlock, loses that much HP."
    ]
  },
  "Juggernaut": {
    "NAME": "Juggernaut",
    "DESCRIPTIONS": [
	"Whenever you gain #yBlock, deal #b",
	" damage to a random enemy."
    ]
  },
  "Knowledge": {
    "NAME": "Knowledge",
    "DESCRIPTIONS": [
	"Whenever you play a #yPower, draw #b", 
	" cards."
    ]
  },
  "Flex": {
    "NAME": "Flex",
    "DESCRIPTIONS": [
	"At the end of your turn, lose #b", 
	" #yStrength."
    ]
  },
  "Malleable": {
    "NAME": "Malleable",
    "DESCRIPTIONS": [
	"On taking #yAttack damage, gains #b", 
	" #yBlock. #yBlock gain increases as ",
	" is triggered. Resets to #b", 
	" at the start of your turn."
    ]
  },
  "Metallicize": {
    "NAME": "Metallicize",
    "DESCRIPTIONS": [
	"Gain #b", 
	" #yBlock at the end of your turn.",
	"Gains #b", 
	" #yBlock at the end of its turn."
    ]
  },
  "Minion": {
    "NAME": "Minion",
    "DESCRIPTIONS": [
	"Minions abandon combat without their leader."
    ]
  },
  "Mode Shift": {
    "NAME": "Mode Shift",
    "DESCRIPTIONS": [
	"After taking #b", 
	" damage, changes to a defensive mode."
    ]
  },
  "Next Turn Block": {
    "NAME": "Next Turn Block",
    "DESCRIPTIONS": [
	"At the start of your next turn, gain #b", 
	" #yBlock."
    ]
  },
  "Night Terror": {
    "NAME": "Nightmare",
    "DESCRIPTIONS": [
  "At the start of your next turn, add #b",
  " cards to your hand."
    ]
  },
  "No Draw": {
    "NAME": "No Draw",
    "DESCRIPTIONS": [
	"You cannot draw cards until end of turn."
    ]
  },
  "Noxious Fumes": {
    "NAME": "Noxious Fumes",
    "DESCRIPTIONS": [
	"At the start of your turn, apply #b", 
	" #yPoison to ALL enemies."
    ]
  },
  "Panache": {
    "NAME": "Panache",
    "DESCRIPTIONS": [
	"If you play #b", 
	" more card this turn, deal #b",
	" damage to ALL enemies.", 
	" more cards this turn, deal #b"
    ]
  },
  "Pen Nib": {
    "NAME": "Pen Nib",
    "DESCRIPTIONS": [
	"Your next #yAttack deals double damage."
    ]
  },
  "Phantasmal": {
    "NAME": "Phantasmal",
    "DESCRIPTIONS": [
	"Deal #yDouble #yDamage next turn.",
	"Deal #yDouble #yDamage for the next ",
	" turns."
    ]
  },
  "Plated Armor": {
    "NAME": "Plated Armor",
    "DESCRIPTIONS": [
	"Gain #b", 
	" #yBlock at the end of your turn. Losing HP from an attack reduces #yPlated #yArmor by #b1.",
	"Gains #b", 
	" #yBlock at the end of its turn. Losing HP from an attack reduces #yPlated #yArmor by #b1."
    ]
  },
  "Poison": {
    "NAME": "Poison",
    "DESCRIPTIONS": [
	"At the start of your turn, lose #b",
	" HP, then reduce #yPoison by #b1.", 
	"At the start of its turn, loses #b"
    ]
  },
  "Rage": {
    "NAME": "Rage",
    "DESCRIPTIONS": [
	"Whenever you play an Attack this turn, gain #b", 
	" #yBlock."
    ]
  },
  "Reduce Damage": {
    "NAME": "Reduce Damage",
    "DESCRIPTIONS": [
	"Reduce damage taken by #b"
    ]
  },
  "Regenerate": {
    "NAME": "Regenerate",
    "DESCRIPTIONS": [
	"Heals #b", 
	" #yHP at the end of its turn."
    ]
  },
  "Regeneration": {
    "NAME": "Regeneration",
    "DESCRIPTIONS": [
	"Heal #b",
	" #yHP at the end of your turn for #b",
    " turns."
    ]
  },
  "Life Link": {
    "NAME": "Life Link",
    "DESCRIPTIONS": [
	"If other enemies are still alive, revives in #b2 turns at #b50% HP."
    ]
  },
  "Relentless Beating": {
    "NAME": "Relentless Beating",
    "DESCRIPTIONS": [
	" beats faster as you play cards or deal damage"
    ]
  },
  "Repulse": {
    "NAME": "Repulse",
    "DESCRIPTIONS": [
	"Whenever ", 
	" receives attack damage, puts a #yWound into your hand."
    ]
  },
    "Retain Cards": {
    "NAME": "Retain Cards",
    "DESCRIPTIONS": [
	"At the end of each turn, you may retain #b", 
	" card.",
	" cards."
    ]
  },
  "Retain Hand": {
    "NAME": "Retain Hand",
    "DESCRIPTIONS": [
	"At the end of your turn, do not discard your hand for #b", 
	" turns.",
	"At the end of your turn, do not discard your hand."
    ]
  },
  "Riposte": {
    "NAME": "Riposte",
    "DESCRIPTIONS": [
	"Once per turn, deals #b",
	" damage back when you play an #yAttack."
    ]
  },
  "Ritual": {
    "NAME": "Ritual",
    "DESCRIPTIONS": [
  "At the end of its turn, gains #b",
  " #yStrength."
    ]
  },
  "Generic Strength Up Power": {
    "NAME": "",
    "DESCRIPTIONS": [
	"At the end of its turn, gains #b",
	" #yStrength." 
    ]
  },
  "Rupture": {
    "NAME": "Rupture",
    "DESCRIPTIONS": [
	"Upon losing HP from a card, gain #b", 
	" #yStrength."
    ]
  },
  "Sadistic": {
    "NAME": "Sadistic",
    "DESCRIPTIONS": [
	"Whenever you apply a Debuff to an enemy, deal #b", 
	" damage."
    ]
  },
  "Serpentine": {
    "NAME": "Serpentine",
    "DESCRIPTIONS": [
	"Immune to #yPotions."
    ]
  },
  "Sharp Hide": {
    "NAME": "Sharp Hide",
    "DESCRIPTIONS": [
	"Whenever you play an #yAttack, take #b", 
	" damage."
    ]
  },
  "Shriek From Beyond": {
    "NAME": "Shriek From Beyond",
    "DESCRIPTIONS": [
	"Whenever you play an Attack, discard a random card." 
    ]
  },
  "Painful Stabs": {
    "NAME": "Painful Stabs",
    "DESCRIPTIONS": [
  "Whenever you take damage from this enemy, add a #yWound into your Discard Pile." 
    ]
  },
  "Skill Burn": {
    "NAME": "Skill Burn",
    "DESCRIPTIONS": [
	"For #b", 
	" turn, whenever you play a #ySkill, #yExhaust it.",
	"For the next #b", 
	" turns, whenever you play a #ySkill, #yExhaust it."
    ]
  },
  "Slow": {
    "NAME": "Slow",
    "DESCRIPTIONS": [
	"For each card played this turn, ",
	" takes #b10% more damage from #yAttacks.", 
	" (Take #b", "% more damage)"
    ]
  },
  "Split": {
    "NAME": "Split",
    "DESCRIPTIONS": [
	"When its HP is at or below #b50%, will split into #b2 smaller slimes with ",
	"'s current HP."
    ]
  },
  "Spore Cloud": {
    "NAME": "Spore Cloud",
    "DESCRIPTIONS": [
	"On death, applies #yVulnerable to you for #b", 
	" turns."
    ]
  },
  "Stasis": {
    "NAME": "Stasis",
    "DESCRIPTIONS": [
	"On death, ", 
	" is returned to your hand."
    ]
  },
  "Extra Cards": {
    "NAME": "Extra Cards",
    "DESCRIPTIONS": [
	"Draw #b1 more card next turn.", 
	"Draw #b",
	" extra cards next turn."
    ]
  },
  "Strength": {
    "NAME": "Strength",
    "DESCRIPTIONS": [
	"Increases attack damage by #b", 
	"Decrease attack damage by #b"
    ]
  },
  "Systems": {
    "NAME": "Systems",
    "DESCRIPTIONS": [
	"Whenever you gain Charge, deal that much damage to a random enemy."
    ]
  },
  "Thievery": {
    "NAME": "Thievery",
    "DESCRIPTIONS": [
	" steals #b",
    " #yGold whenever it attacks."
    ]
  },
  "Thorns": {
    "NAME": "Thorns",
    "DESCRIPTIONS": [
	"When receiving #yAttack damage, deals #b", 
	" damage back."
    ]
  },
  "Thousand Cuts": {
    "NAME": "Thousand Cuts",
    "DESCRIPTIONS": [
	"Whenever you play a card, deal #b", 
	" damage to ALL enemies."
    ]
  },
  "Berserk": {
    "NAME": "Berserk",
    "DESCRIPTIONS": [
	"If your HP is at or below #b50%, gain ",
	" at the start of your turn."
    ]
  },
  "Time Warp": {
    "NAME": "Time Warp",
    "DESCRIPTIONS": [
	"Whenever you play #b",
  " cards, your turn is ended and Time Eater gains #b",
  " #yStrength."
    ]
  },
  "Tools Of The Trade": {
    "NAME": "Tools Of The Trade",
    "DESCRIPTIONS": [
	"At the start of your turn, draw #b", 
	" card and discard #b",
	" card.", 
	" cards and discard #b", 
	" cards."
    ]
  },
   "Unawakened": {
    "NAME": "Unawakened",
    "DESCRIPTIONS": [
	"This enemy hasn't awakened yet..."
    ]
  },
  "Unstable": {
    "NAME": "Unstable",
    "DESCRIPTIONS": [
	"Deal enough damage to throw it off balance."
    ]
  },
  "Venomology": {
    "NAME": "Venomology",
    "DESCRIPTIONS": [
	"#yPoison grows stronger by #b",
	" instead of lowering each turn."
    ]
  },
  "Vulnerable": {
    "NAME": "Vulnerable",
    "DESCRIPTIONS": [
	"Take #b", 
	"% more damage from #yAttacks for #b", 
	" turn.",
	" turns."
    ]
  },
  "Weakened": {
    "NAME": "Weakened",
    "DESCRIPTIONS": [
	"#yAttacks deal #b", 
	"% less damage for #b", 
	" turn.", 
	" turns."
    ]
  },
  "Wraith Form": {
    "NAME": "Wraith Form",
    "DESCRIPTIONS": [
	"Whenever you play a Skill, deal ", 
	" damage to a random enemy."
    ]
  }
}
