{
  "Cancel Button": {
    "TEXT": [
		"Delete Save"	
	]
  },
  "Confirm Button": {
    "TEXT": [
		"Confirm"
	]
  },
  "End Turn Button": {
    "TEXT": [
		"End Turn",
		"Enemy Turn"
	]
  },
  "LeaderboardsScreen": {
    "TEXT": [
    	"Return",
		"Filters",
		"Character",
		"Region",
		"Type",
		"View My Score",
		"Rank",
		"Name",
		"Score",
		"Retrieving Data...",
		"Leaderboards",
		"Not Connected to Steam"
	]
  },
  "LanguageDropdown": {
    "TEXT": [
		"Brazilian Portugese",
		"Chinese (Simplified)",
		"Chinese (Traditional)",
		"English",
		"French",
		"German",
		"Italian",
		"Japanese",
		"Korean",
		"Polish",
		"Russian",
		"Spanish",
		"Hebrew"
	]
  },
  "Proceed Button": {
    "TEXT": [
		"Proceed"	
	]
  },
  "GamblingChipAction": {
    "TEXT": [
		"Replace (Gambling Chip)"
	]
  },
  "RetainCardsAction": {
    "TEXT": [
		"Retain"
	]
  },
  "AbstractChest": {
    "TEXT": [
		"Proceed"
	]
  },
  "BossChest": {
    "TEXT": [
		"Proceed"
	]
  },
  "ShopRoom": {
    "TEXT": [
		"Skip Merchant"
	]
  },
  "TreasureRoom": {
    "TEXT": [
		"Skip Chest"
	]
  },
  "TreasureRoomBoss": {
    "TEXT": [
		"Skip Chest"
	]
  },
  "SetupAction": {
    "TEXT": [
		"put on top of your draw pile."
	]
  },
  "SkillFromDeckToHandAction": {
    "TEXT": [
		"Choose a Skill to Add to Your Hand"
	]
  },
  "Legend": {
    "TEXT": [
		"Unknown",
		"???",
		"An unknown room. NL NL You may encounter monsters, treasures, shops, or something entirely different.",
		"Merchant",
		"Shops",
		"A mysterious merchant sells his wares in these rooms. NL NL Spend your well earned #yGold here!",
		"Treasure",
		"Treasure Rooms",
		"#yRelics and #yGold can be found in these coveted rooms.",
		"Rest",
		"Rest Sites",
		"Stop by these rooms to #gHeal some HP or #yUpgrade a card.",
		"Enemy",
		"Enemies",
		"Hostile enemies reside in these rooms.",
		"Elite",
		"Elites",
		"Powerful foes are in these rooms. NL NL Defeating them will reward you a Relic.",
		"Legend"
	]
  },
  "Unlock Confirm Button": {
    "TEXT": [
		"Continue"	
	]
  },
  "Dig Option": {
    "TEXT": [
		"Dig",
		"Dig up a random relic."
	]
  },
  "Lift Option": {
    "TEXT": [
		"Lift",
		"Start battles with +1 Strength. (Up to 3)"
	]
  },
  "Rest Option": {
    "TEXT": [
		"Rest",
		"Heal for 20% of your Max HP (",
		" HP from ",
		"Heal for 30% of your Max HP ("	
	]
  },
  "Smith Option": {
    "TEXT": [
		"Smith",
		"Upgrade a card in your deck.",
		"No upgradeable cards."
	]
  },
  "Toke Option": {
    "TEXT": [
		"Toke",
		"Remove a card from your deck."
	]
  },
  "DiscardPilePanel": {
    "TEXT": [
		"My Discard Pile is #rempty."	
	]
  },
  "DrawPilePanel": {
    "TEXT": [
		"My Draw Pile is #rempty."
	]
  },
  "PotionPopUp": {
    "TEXT": [
		"Throw",
		"Drink",
		"Discard",
		"I cannot use potions!",
		"I can't do that in combat!"
	]
  },
  "RenamePanel": {
    "TEXT": [
		"<no name>",
		"Enter  Your  Name",
		"Confirm",
		"Cancel"
	]
  },
  "AbstractCard": {
    "TEXT": [
		"Locked",
		"Unknown"
	]
  },
  "AbstractPlayer": {
    "TEXT": [
		"Blocked",
		"the Ironclad",
		"the Silent",
		"the Gunner"
	]
  },
  "AbstractCreature": {
    "TEXT": [
		"Dead",
		"Blocked",
		"Max HP +"
	]
  },
  "TopPanel": {
    "TEXT": [
		" Floor"	
	]
  },
  "UnlockCharacterScreen": {
    "TEXT": [
		"Cards Unlocked!",
		"",
		"Relics Unlocked!",
		"New Character",
		"Note: Unlocked cards show up in future runs.",
		"Note: Unlocked relics show up in future runs."
	]
  },
  "UnlockScreen": {
    "TEXT": [
		"Cards Unlocked!",
		"Relics Unlocked!",
		"New Character",
		"Note: Unlocked cards show up in future runs.",
		"Note: Unlocked relics show up in future runs."
	]
  },
  "StorePotion": {
    "TEXT": [
		"You have no space for this"
	]
  },
  "AbstractRoom": {
    "TEXT": [
		"Mugged..."
	]
  },
  "SingleViewRelicPopup": {
    "TEXT": [
		"Boss",
		"Common",
		"Deprecated",
		"Rare",
		"Shop",
		"Event",
		"Starter",
		"Uncommon",
		"Locked",
		"Unknown",
		" Relic",
		"This relic has yet to be unlocked.",
		"This relic remains to be seen."
	]
  },
  "SingleCardViewPopup": {
    "TEXT": [
		"Attack",
		"Skill",
		"Power",
		"Curse",
		"Locked",
		"Unknown",
		"View Upgrade",
		"Status",
		"Ammo",
		"I can only play cards on my turn.",
		"I'm #rEntangled! NL Can't play Attacks",
		"Not enough #rEnergy.",
		"Not enough #rCharge.",
		"I can't play NL this card"
	]
  },
  "MasterDeckViewScreen": {
    "TEXT": [
		"You start each combat with all the cards in here.",
		"Return"
	]
  },
  "DungeonTransitionScreen": {
    "TEXT": [
		"Tutorials",
		"Do you wish to see gameplay hints as you play the game?",
		"Level 1",
		"Exordium",
		"Level 2",
		"The City",
		"Level 3",
		"The Beyond",
		"Level ?",
		"???",
		"Click Anywhere to Continue"
	]
  },
  "DungeonMapScreen": {
    "TEXT": [
		"Select a Starting Room",
		"Return"		
	]
  },
  "DrawPileViewScreen": {
    "TEXT": [
		"Cards are drawn from here at the start of each turn.",
		"(Cards shown are sorted by rarity)",
		"Return",
		"Draw Pile"
	]
  },
  "DiscardPileViewScreen": {
    "TEXT": [
		"Cards here are shuffled into your draw pile when it runs out of cards.",
		"Return",
		"Discard Pile"
	]
  },
  "CopyAction": {
    "TEXT": [
		"Copy"
	]
  },
  "DiscardAction": {
    "TEXT": [
		"Discard"
	]
  },
  "ArmamentsAction": {
    "TEXT": [
		"Upgrade"
	]
  },
	"DualWieldAction": {
		"TEXT": [
			"Duplicate"
		]
	},
	"HiddenChamberAction": {
		"TEXT": [
			"Duplicate"
		]
	},
  "DeathScreen": {
    "TEXT": [
		"Continue",
		"Victory?",
		"Floors Climbed",
		"Bosses Defeated",
		"Play Time",
		"Play Time",
		"Score",
		"Conquered",
		"Death...",
		"Defeat",
		"Defeated!",
		"Desecrated",
		"Devastation",
		"Vanquished",
		"You are Slain!",
		"A familiar feeling.",
		"A nap sounds good.",
		"As you sow, so you shall reap.",
		"Went the wrong way.",
		"I wasn't prepared for this.",
		"I'll try again tomorrow.",
		"I'm going to need a new map.",
		"Inadequately prepared.",
		"Inconceivable!",
		"Is this my true potential?",
		"Just my luck...",
		"Not like this...",
		"Not quite the top.",
		"The Spire consumes another...",
		"Your consciousness fades...",
		"Defeat",
		"Acceptance",
		"Continue",
		"Retry",
		"Main Menu",
		"Proceed",
		"Unlock",
		"Main Menu",
		"Retry",
		"Proceed",
		"Unlock",
		"Unlocks Remaining: ",
		"Unlock Remaining: ",
		"Enemies Slain",
		"Elites Killed",
		"Unspent Gold",
		"HP Bonus"
	]
  },
  "CombatRewardScreen": {
    "TEXT": [
		"Proceed",
		"Skip Card",
		"Skip Gold",
		"Skip Potion",
		"Skip Relic",
		"Skip Rewards",
		"Close",
		"Treasure!",
		"What's  Inside?",
		"Rewards!",
		"Spoils!",
		"Loot!",
		"Tip: "
	]
  },
  "ChooseOneScreen": {
    "TEXT": [
		"Choose One"	
	]
  },
  "CardRewardScreen": {
    "TEXT": [
		"Skip",
		"Choose a Card"
	]
  },
  "BossRelicSelectScreen": {
    "TEXT": [
		"Confirm",
		"Confirm Your Selection",
		"Choose a Relic",
		"Skip"
	]
  },
  "GridCardSelectScreen": {
    "TEXT": [
		"Confirm",
		"Cancel",
		"Confirm Your Selection",
		"Leave"
	]
  },
  "HandCardSelectScreen": {
    "TEXT": [
		"Confirm Card to ",
		"Confirm Cards to ",
		"Choose ",
		" Cards to ",
		"Choose Any Number of Cards to ",
		"Choose a Card to "
	]
  },
  "AbandonRunButton": {
    "TEXT": [
		"Abandon Run"	
	]
  },
  "ConfirmPopup": {
    "TEXT": [
		"Return",
		"Delete Save",
		"Yes",
		"No"
	]
  },
  "ExitGameButton": {
    "TEXT": [
		"Exit Game"
	]
  },
  "OptionsPanel": {
    "TEXT": [
		"",
		"Game Menu",
		"Graphics",
		"Resolution: NL Max Framerate:",
		"Fullscreen NL Borderless Fullscreen (recommended) NL Screenshake",
		"Sound",
		"Master Volume NL Music Volume NL Effects Volume",
		"Sounds in Background",
		"Preferences",
		"Display summed up damage in gold NL Display blocked damage in blue NL Disable confirmation when choosing 1 card",
		"Common Tips NL Card Tips",
		"Power Tips NL Relic Tips",
		"Miscellaneous",
		"Language:",
		"Upload gameplay data #b(?)",
		"Exit Game",
		"Save & Quit",
		"NL NL VSync",
		"Playtester Art Mode"
	]
  },
  "SettingsScreen": {
    "TEXT": [
		"Are you sure?",
		"Your progress is automatically saved.",
		"Abandoning the game will result in a loss.",
		"WARNING:\nProgress NOT saved.\n\nReach the next floor to save this current run.",
		"Return",
		"Progress is NOT saved for daily runs."
	]
  },
  "CardLibraryScreen": {
    "TEXT": [
		"Return",
		"Red",
		"Green",
		"Blue",
		"Colorless",
		"Curses",
		"Statuses",
		"View Upgrade"
	]
  },
  "CardLibSortHeader": {
    "TEXT": [
		"Rarity",
		"Type",
		"A-Z"
	]
  },
  "EarlyAccessPopup": {
    "TEXT": [
		"What's Early Access?",
		"What's an Open Beta?",
		"Slay the Spire is still in active development! NL Many features, cards, and enemies are still undergoing changes. NL NL If you run into issues or have any feedback, please let us know at our #bSteam #bDiscussions page. NL NL That's enough reading, you have a spire to climb!",
		"Slay the Spire is still in active development! NL On top of this, you are playing the Beta version of the game. NL NL Please let us know of any issues you have while playing, but don't be surprised by placeholder art for upcoming content. NL NL That's enough reading, you have a spire to climb!",
		"Click anywhere to Start"
	]
  },
  "MainMenuScreen": {
    "TEXT": [
		"#yBuild: ",
		"Embark",
		"Return",
		"click to edit"
	]
  },
  "MenuButton": {
    "TEXT": [
		"Card Library",
		"Play",
		"Daily Challenge",
		"Relic Collection",
		"Continue",
		"Leaderboards (Beta)",
		"Statistics",
		"Credits",
		"Quit",
		"Patch Notes",
		"Abandon Run",
		"Abandon Run (click again to confirm)"
	]
  },
  "PatchNotesScreen": {
    "TEXT": [
		"Return",
		"#yPatch #yNotes",
		" NL (TEMPORARY: Use arrow keys to navigate through older logs)"
	]
  },
  "RelicViewScreen": {
    "TEXT": [
		"Return",
		"Starter:",
		"Characters can start with these relics.",
		"Common:",
		"Weak relics that are found commonly.",
		"Uncommon:",
		"Stronger relics which appear less often than common relics.",
		"Rare:",
		"Unique and powerful relics which are rarely seen.",
		"Boss:",
		"Relics found only within Boss chests.",
		"Event:",
		"Relics which can only be obtained through events.",
		"Shop:",
		"Relics which can only be purchased from the Merchant."
	]
  },
  "CharacterOption": {
    "TEXT": [
		"Locked",
		"This character is unlocked by completing a single run.",
		"This character is still unavailable in Early Access.",
		"This character is unlocked by reaching the top of the Spire.",
		"HP: ",
		"Gold: ",
		" Unlocks Remaining",
		"Unknown",
		"???",
		" To Next Unlock"
	]
  },
  "CharacterSelectScreen": {
    "TEXT": [
		"Choose Your Character",
		"Embark",
		"The Ironclad",
		"The Silent",
		"Crowbot",
		"Back"
	]
  },
  "AbstractMonster": {
    "TEXT": [
		"Aggressive",
		"This enemy intends to NL #yAttack for #b",
		" damage #b",
		" times.",
		"This enemy intends to NL #yAttack for #b",
		" damage.",
		"Aggressive",
		"This enemy intends to use a #yBuff and #yAttack for #b",
		" times.",
		"This enemy intends to use a #yBuff and #yAttack for #b",
		"Strategic",
		"This enemy intends to inflict a #yNegative #yEffect on you and #yAttack for #b",
		"This enemy intends to #yBlock and #yAttack for #b",
		"Defensive",
		"Cowardly",
		"Magical",
		"Sleeping",
		"Stunned",
		"Unknown",
		"This enemy intends to use a #yBuff.",
		"This enemy intends to inflict a #yNegative #yEffect on you.",
		"This enemy intends to inflict a powerful #yNegative #yEffect on you.",
		"This enemy intends to #yBlock on its turn.",
		"This enemy intends to #yBlock and inflict a #yNegative #yEffect on you.",
		"This enemy intends to #yBlock and use a #yBuff.",
		"This enemy intends to #yEscape.",
		"This enemy intends to use mysterious #yMagic on its turn.",
		"This enemy is asleep.",
		"This enemy is #yStunned on its turn.",
		"This enemy's intentions are #yUnknown (not attacking).",
		"Blocked"
	]
  },
  "AbstractDungeon": {
    "TEXT": [
		"Proceed"
	]
  },
  "Exordium": {
    "TEXT": [
		"Exordium"
	]
  },
  "TheCity": {
    "TEXT": [
		"The City"
	]
  },
  "GameSavedEffect": {
    "TEXT": [
		"#y~Game~ #y~Saved~"
	]
  },
  "BattleStartEffect": {
    "TEXT": [
		"Battle Start",
		"Player Turn",
		"Enemy Turn",
		" turn"
	]
  },
   "RewardItem": {
    "TEXT": [
		" Gold (Stolen Back)",
		" Gold",
		"Add a card to your deck",
		"",
		"Choose a Card"
	]
  },
  "CampfireUI": {
    "TEXT": [
		"What to do?",
		"Hmm...",
		"What shall I do?",
		"Time for a break",
		"So many options...",
		"I should rest",
		"So tired..."
	]
  },
  "CampfireSmithEffect": {
    "TEXT": [
		"Select a Card to Upgrade"
	]
  },
  "CampfireSleepEffect": {
    "TEXT": [
		"Dreaming?"
	]
  },
  "CampfireTokeEffect": {
    "TEXT": [
		"Select a Card to Remove."
	]
  },
  "UnlockTextEffect": {
    "TEXT": [
		"New Unlock!"
	]
  },
  "AbstractPotion": {
    "TEXT": [
		"I can't carry NL any more Potions."
	]
  },
  "TipHelper": {
    "TEXT": [
		"Energy"
	]
  },
  "ExhaustAction": {
    "TEXT": [
		"Exhaust"
	]
  },
  "ExhumeAction": {
    "TEXT": [
		"Select a Card to Return to your Hand"
	]
  },
  "PowerExpireTextEffect": {
    "TEXT": [
		"Wears Off"
	]
  },
  "RestartForChangesEffect": {
    "TEXT": [
		"Restart the game for display changes to take effect."
	]
  },
  "OpeningAction": {
    "TEXT": [
		"That enemy does not intend to attack!"
	]
  },
  "ApplyPowerAction": {
    "TEXT": [
		"Negated",
		"Immune",
		"Nullified",
		"\n Down"
	]
  },
  "PutOnDeckAction": {
    "TEXT": [
		"put on top of your draw pile"
	]
  },
  "ImmolateAction": {
    "TEXT": [
		"Exhaust"
	]
  },
  "TheBeyond": {
    "TEXT": [
		"The Beyond"
	]
  }
}
